id,name,model_id:id,group_id:id,perm_read,perm_write,perm_create,perm_unlink
access_utility_analysis_wizard,utility_analysis_wizard,model_utility_analysis_wizard,group_utility_analysis,1,1,1,1
access_r_utility_analysis,r_utility_analysis,model_r_utility_analysis,group_utility_analysis,1,1,1,1
access_r_utility_analysis_group,r.utility.analysis.group,model_r_utility_analysis_group,group_utility_analysis,1,1,1,1
access_r_utility_analysis_group_detail,r.utility.analysis.group.detail,model_r_utility_analysis_group_detail,group_utility_analysis,1,1,1,1
access_type_product,type.product,price_list.model_type_product,group_utility_analysis,1,0,0,0