id,name,model_id:id,group_id:id,perm_read,perm_write,perm_create,perm_unlink
access_mercadolibre_orders,model_mercadolibre_orders,model_mercadolibre_orders,,1,1,1,1
access_mercadolibre_order_items,model_mercadolibre_order_items,model_mercadolibre_order_items,,1,1,1,1
access_orders_error_log,model_orders_error_log,model_orders_error_log,,1,1,1,1
access_mercadolibre_buyers,model_mercadolibre_buyers,model_mercadolibre_buyers,,1,1,1,1
access_mercadolibre_category,model_mercadolibre_category,model_mercadolibre_category,,1,1,1,1
access_mercadolibre_banner,model_mercadolibre_banner,model_mercadolibre_banner,,1,1,1,1
access_mercadolibre_posting,model_mercadolibre_posting,model_mercadolibre_posting,,1,1,1,1
access_mercadolibre_questions,model_mercadolibre_questions,model_mercadolibre_questions,,1,1,1,1
